%YAML 1.1
%TAG !u! tag:unity3d.com,2011:
--- !u!74 &7400000
AnimationClip:
  m_ObjectHideFlags: 0
  m_PrefabParentObject: {fileID: 0}
  m_PrefabInternal: {fileID: 0}
  m_Name: Right
  serializedVersion: 4
  m_AnimationType: 1
  m_Compressed: 0
  m_UseHighQualityCurve: 1
  m_RotationCurves:
  - curve:
      serializedVersion: 2
      m_Curve:
      - time: 0
        value: {x: 0, y: 0, z: .707106829, w: .707106709}
        inSlope: {x: 0, y: 0, z: 0, w: 0}
        outSlope: {x: 0, y: 0, z: 0, w: 0}
        tangentMode: 0
      - time: .0166666675
        value: {x: 0, y: 0, z: .707106829, w: .707106709}
        inSlope: {x: 0, y: 0, z: 0, w: 0}
        outSlope: {x: 0, y: 0, z: 0, w: 0}
        tangentMode: 0
      - time: .0333333351
        value: {x: 0, y: 0, z: .707106829, w: .707106709}
        inSlope: {x: 0, y: 0, z: 0, w: 0}
        outSlope: {x: 0, y: 0, z: 0, w: 0}
        tangentMode: 53
      - time: .0500000045
        value: {x: 0, y: 0, z: .707106829, w: .707106709}
        inSlope: {x: 0, y: 0, z: 0, w: 0}
        outSlope: {x: 0, y: 0, z: 0, w: 0}
        tangentMode: 0
      - time: .0666666701
        value: {x: 0, y: 0, z: .707106829, w: .707106709}
        inSlope: {x: 0, y: 0, z: 0, w: 0}
        outSlope: {x: 0, y: 0, z: 0, w: 0}
        tangentMode: 0
      - time: .0833333358
        value: {x: 0, y: 0, z: .707106829, w: .707106709}
        inSlope: {x: 0, y: 0, z: 0, w: 0}
        outSlope: {x: 0, y: 0, z: 0, w: 0}
        tangentMode: 0
      - time: .100000001
        value: {x: 0, y: 0, z: .707106829, w: .707106709}
        inSlope: {x: 0, y: 0, z: 0, w: 0}
        outSlope: {x: 0, y: 0, z: 0, w: 0}
        tangentMode: 0
      - time: .116666667
        value: {x: 0, y: 0, z: .707106829, w: .707106709}
        inSlope: {x: 0, y: 0, z: 0, w: 0}
        outSlope: {x: 0, y: 0, z: 0, w: 0}
        tangentMode: 0
      - time: .13333334
        value: {x: 0, y: 0, z: .707106829, w: .707106709}
        inSlope: {x: 0, y: 0, z: 0, w: 0}
        outSlope: {x: 0, y: 0, z: 0, w: 0}
        tangentMode: 53
      - time: .150000006
        value: {x: 0, y: 0, z: .707106829, w: .707106709}
        inSlope: {x: 0, y: 0, z: 0, w: 0}
        outSlope: {x: 0, y: 0, z: 0, w: 0}
        tangentMode: 53
      - time: .166666672
        value: {x: 0, y: 0, z: .707106829, w: .707106709}
        inSlope: {x: 0, y: 0, z: 0, w: 0}
        outSlope: {x: 0, y: 0, z: 0, w: 0}
        tangentMode: 0
      - time: .183333337
        value: {x: 0, y: 0, z: .707106829, w: .707106709}
        inSlope: {x: 0, y: 0, z: 0, w: 0}
        outSlope: {x: 0, y: 0, z: 0, w: 0}
        tangentMode: 0
      - time: .200000003
        value: {x: 0, y: 0, z: .707106829, w: .707106709}
        inSlope: {x: 0, y: 0, z: 0, w: 0}
        outSlope: {x: 0, y: 0, z: 0, w: 0}
        tangentMode: 0
      - time: .216666669
        value: {x: 0, y: 0, z: .707106829, w: .707106709}
        inSlope: {x: 0, y: 0, z: 0, w: 0}
        outSlope: {x: 0, y: 0, z: 0, w: 0}
        tangentMode: 0
      - time: .233333334
        value: {x: 0, y: 0, z: .707106829, w: .707106709}
        inSlope: {x: 0, y: 0, z: 0, w: 0}
        outSlope: {x: 0, y: 0, z: 0, w: 0}
        tangentMode: 53
      - time: .25
        value: {x: 0, y: 0, z: .707106829, w: .707106709}
        inSlope: {x: 0, y: 0, z: 0, w: 0}
        outSlope: {x: 0, y: 0, z: 0, w: 0}
        tangentMode: 0
      - time: .266666681
        value: {x: 0, y: 0, z: .707106829, w: .707106709}
        inSlope: {x: 0, y: 0, z: 0, w: 0}
        outSlope: {x: 0, y: 0, z: 0, w: 0}
        tangentMode: 0
      - time: .283333361
        value: {x: 0, y: 0, z: .707106829, w: .707106709}
        inSlope: {x: 0, y: 0, z: 0, w: 0}
        outSlope: {x: 0, y: 0, z: 0, w: 0}
        tangentMode: 2139095040
      - time: .300000042
        value: {x: 0, y: 0, z: .707106829, w: .707106709}
        inSlope: {x: 0, y: 0, z: 0, w: 0}
        outSlope: {x: 0, y: 0, z: 0, w: 0}
        tangentMode: 2139095040
      - time: .316666722
        value: {x: 0, y: 0, z: .707106829, w: .707106709}
        inSlope: {x: 0, y: 0, z: 0, w: 0}
        outSlope: {x: 0, y: 0, z: 0, w: 0}
        tangentMode: 53
      - time: .333333403
        value: {x: 0, y: 0, z: .707106829, w: .707106709}
        inSlope: {x: 0, y: 0, z: 0, w: 0}
        outSlope: {x: 0, y: 0, z: 0, w: 0}
        tangentMode: 1065353216
      - time: .350000083
        value: {x: 0, y: 0, z: .707106829, w: .707106709}
        inSlope: {x: 0, y: 0, z: 0, w: 0}
        outSlope: {x: 0, y: 0, z: 0, w: 0}
        tangentMode: 0
      - time: .366666764
        value: {x: 0, y: 0, z: .707106829, w: .707106709}
        inSlope: {x: 0, y: 0, z: 0, w: 0}
        outSlope: {x: 0, y: 0, z: 0, w: 0}
        tangentMode: 0
      - time: .383333445
        value: {x: 0, y: 0, z: .707106829, w: .707106709}
        inSlope: {x: 0, y: 0, z: 0, w: 0}
        outSlope: {x: 0, y: 0, z: 0, w: 0}
        tangentMode: 0
      - time: .400000125
        value: {x: 0, y: 0, z: .707106829, w: .707106709}
        inSlope: {x: 0, y: 0, z: 0, w: 0}
        outSlope: {x: 0, y: 0, z: 0, w: 0}
        tangentMode: -1
      - time: .416666806
        value: {x: 0, y: 0, z: .707106829, w: .707106709}
        inSlope: {x: 0, y: 0, z: 0, w: 0}
        outSlope: {x: 0, y: 0, z: 0, w: 0}
        tangentMode: 0
      - time: .433333486
        value: {x: 0, y: 0, z: .707106829, w: .707106709}
        inSlope: {x: 0, y: 0, z: 0, w: 0}
        outSlope: {x: 0, y: 0, z: 0, w: 0}
        tangentMode: 0
      - time: .450000167
        value: {x: 0, y: 0, z: .707106829, w: .707106709}
        inSlope: {x: 0, y: 0, z: 0, w: 0}
        outSlope: {x: 0, y: 0, z: 0, w: 0}
        tangentMode: 0
      - time: .466666847
        value: {x: 0, y: 0, z: .707106829, w: .707106709}
        inSlope: {x: 0, y: 0, z: 0, w: 0}
        outSlope: {x: 0, y: 0, z: 0, w: 0}
        tangentMode: 1056964608
      - time: .483333528
        value: {x: 0, y: 0, z: .707106829, w: .707106709}
        inSlope: {x: 0, y: 0, z: 0, w: 0}
        outSlope: {x: 0, y: 0, z: 0, w: 0}
        tangentMode: 0
      - time: .5
        value: {x: 0, y: 0, z: .707106829, w: .707106709}
        inSlope: {x: 0, y: 0, z: 0, w: 0}
        outSlope: {x: 0, y: 0, z: 0, w: 0}
        tangentMode: 0
      m_PreInfinity: 2
      m_PostInfinity: 2
    path: Arrow
  m_CompressedRotationCurves: []
  m_PositionCurves:
  - curve:
      serializedVersion: 2
      m_Curve:
      - time: 0
        value: {x: -3, y: -4, z: 0}
        inSlope: {x: 10, y: 0, z: 0}
        outSlope: {x: 10, y: 0, z: 0}
        tangentMode: 974127120
      - time: .5
        value: {x: 2, y: -4, z: 0}
        inSlope: {x: 10, y: 0, z: 0}
        outSlope: {x: 10, y: 0, z: 0}
        tangentMode: 980067692
      m_PreInfinity: 2
      m_PostInfinity: 2
    path: Arrow
  m_ScaleCurves: []
  m_FloatCurves: []
  m_PPtrCurves: []
  m_SampleRate: 60
  m_WrapMode: 0
  m_Bounds:
    m_Center: {x: 0, y: 0, z: 0}
    m_Extent: {x: 0, y: 0, z: 0}
  m_AnimationClipSettings:
    serializedVersion: 2
    m_StartTime: 0
    m_StopTime: .5
    m_OrientationOffsetY: 0
    m_Level: 0
    m_CycleOffset: 0
    m_LoopTime: 1
    m_LoopBlend: 0
    m_LoopBlendOrientation: 0
    m_LoopBlendPositionY: 0
    m_LoopBlendPositionXZ: 0
    m_KeepOriginalOrientation: 0
    m_KeepOriginalPositionY: 1
    m_KeepOriginalPositionXZ: 0
    m_HeightFromFeet: 0
    m_Mirror: 0
  m_EditorCurves:
  - curve:
      serializedVersion: 2
      m_Curve:
      - time: 0
        value: -3
        inSlope: 10
        outSlope: 10
        tangentMode: 10
      - time: .5
        value: 2
        inSlope: 10
        outSlope: 10
        tangentMode: 10
      m_PreInfinity: 2
      m_PostInfinity: 2
    attribute: m_LocalPosition.x
    path: Arrow
    classID: 4
    script: {fileID: 0}
  - curve:
      serializedVersion: 2
      m_Curve:
      - time: 0
        value: -4
        inSlope: 0
        outSlope: 0
        tangentMode: 10
      - time: .5
        value: -4
        inSlope: 0
        outSlope: 0
        tangentMode: 10
      m_PreInfinity: 2
      m_PostInfinity: 2
    attribute: m_LocalPosition.y
    path: Arrow
    classID: 4
    script: {fileID: 0}
  - curve:
      serializedVersion: 2
      m_Curve:
      - time: 0
        value: 0
        inSlope: 0
        outSlope: 0
        tangentMode: 10
      - time: .5
        value: 0
        inSlope: 0
        outSlope: 0
        tangentMode: 10
      m_PreInfinity: 2
      m_PostInfinity: 2
    attribute: m_LocalPosition.z
    path: Arrow
    classID: 4
    script: {fileID: 0}
  - curve:
      serializedVersion: 2
      m_Curve:
      - time: 0
        value: 0
        inSlope: 0
        outSlope: 0
        tangentMode: 0
      - time: .0166666675
        value: 0
        inSlope: 0
        outSlope: 0
        tangentMode: 0
      - time: .0333333351
        value: 0
        inSlope: 0
        outSlope: 0
        tangentMode: 0
      - time: .0500000045
        value: 0
        inSlope: 0
        outSlope: 0
        tangentMode: 0
      - time: .0666666701
        value: 0
        inSlope: 0
        outSlope: 0
        tangentMode: 0
      - time: .0833333358
        value: 0
        inSlope: 0
        outSlope: 0
        tangentMode: 0
      - time: .100000001
        value: 0
        inSlope: 0
        outSlope: 0
        tangentMode: 0
      - time: .116666667
        value: 0
        inSlope: 0
        outSlope: 0
        tangentMode: 0
      - time: .13333334
        value: 0
        inSlope: 0
        outSlope: 0
        tangentMode: 0
      - time: .150000006
        value: 0
        inSlope: 0
        outSlope: 0
        tangentMode: 0
      - time: .166666672
        value: 0
        inSlope: 0
        outSlope: 0
        tangentMode: 0
      - time: .183333337
        value: 0
        inSlope: 0
        outSlope: 0
        tangentMode: 0
      - time: .200000003
        value: 0
        inSlope: 0
        outSlope: 0
        tangentMode: 0
      - time: .216666669
        value: 0
        inSlope: 0
        outSlope: 0
        tangentMode: 0
      - time: .233333334
        value: 0
        inSlope: 0
        outSlope: 0
        tangentMode: 0
      - time: .25
        value: 0
        inSlope: 0
        outSlope: 0
        tangentMode: 0
      - time: .266666681
        value: 0
        inSlope: 0
        outSlope: 0
        tangentMode: 0
      - time: .283333361
        value: 0
        inSlope: 0
        outSlope: 0
        tangentMode: 0
      - time: .300000042
        value: 0
        inSlope: 0
        outSlope: 0
        tangentMode: 0
      - time: .316666722
        value: 0
        inSlope: 0
        outSlope: 0
        tangentMode: 0
      - time: .333333403
        value: 0
        inSlope: 0
        outSlope: 0
        tangentMode: 0
      - time: .350000083
        value: 0
        inSlope: 0
        outSlope: 0
        tangentMode: 0
      - time: .366666764
        value: 0
        inSlope: 0
        outSlope: 0
        tangentMode: 0
      - time: .383333445
        value: 0
        inSlope: 0
        outSlope: 0
        tangentMode: 0
      - time: .400000125
        value: 0
        inSlope: 0
        outSlope: 0
        tangentMode: 0
      - time: .416666806
        value: 0
        inSlope: 0
        outSlope: 0
        tangentMode: 0
      - time: .433333486
        value: 0
        inSlope: 0
        outSlope: 0
        tangentMode: 0
      - time: .450000167
        value: 0
        inSlope: 0
        outSlope: 0
        tangentMode: 0
      - time: .466666847
        value: 0
        inSlope: 0
        outSlope: 0
        tangentMode: 0
      - time: .483333528
        value: 0
        inSlope: 0
        outSlope: 0
        tangentMode: 0
      - time: .5
        value: 0
        inSlope: 0
        outSlope: 0
        tangentMode: 0
      m_PreInfinity: 2
      m_PostInfinity: 2
    attribute: m_LocalRotation.x
    path: Arrow
    classID: 4
    script: {fileID: 0}
  - curve:
      serializedVersion: 2
      m_Curve:
      - time: 0
        value: 0
        inSlope: 0
        outSlope: 0
        tangentMode: 0
      - time: .0166666675
        value: 0
        inSlope: 0
        outSlope: 0
        tangentMode: 0
      - time: .0333333351
        value: 0
        inSlope: 0
        outSlope: 0
        tangentMode: 0
      - time: .0500000045
        value: 0
        inSlope: 0
        outSlope: 0
        tangentMode: 0
      - time: .0666666701
        value: 0
        inSlope: 0
        outSlope: 0
        tangentMode: 0
      - time: .0833333358
        value: 0
        inSlope: 0
        outSlope: 0
        tangentMode: 0
      - time: .100000001
        value: 0
        inSlope: 0
        outSlope: 0
        tangentMode: 0
      - time: .116666667
        value: 0
        inSlope: 0
        outSlope: 0
        tangentMode: 0
      - time: .13333334
        value: 0
        inSlope: 0
        outSlope: 0
        tangentMode: 0
      - time: .150000006
        value: 0
        inSlope: 0
        outSlope: 0
        tangentMode: 0
      - time: .166666672
        value: 0
        inSlope: 0
        outSlope: 0
        tangentMode: 0
      - time: .183333337
        value: 0
        inSlope: 0
        outSlope: 0
        tangentMode: 0
      - time: .200000003
        value: 0
        inSlope: 0
        outSlope: 0
        tangentMode: 0
      - time: .216666669
        value: 0
        inSlope: 0
        outSlope: 0
        tangentMode: 0
      - time: .233333334
        value: 0
        inSlope: 0
        outSlope: 0
        tangentMode: 0
      - time: .25
        value: 0
        inSlope: 0
        outSlope: 0
        tangentMode: 0
      - time: .266666681
        value: 0
        inSlope: 0
        outSlope: 0
        tangentMode: 0
      - time: .283333361
        value: 0
        inSlope: 0
        outSlope: 0
        tangentMode: 0
      - time: .300000042
        value: 0
        inSlope: 0
        outSlope: 0
        tangentMode: 0
      - time: .316666722
        value: 0
        inSlope: 0
        outSlope: 0
        tangentMode: 0
      - time: .333333403
        value: 0
        inSlope: 0
        outSlope: 0
        tangentMode: 0
      - time: .350000083
        value: 0
        inSlope: 0
        outSlope: 0
        tangentMode: 0
      - time: .366666764
        value: 0
        inSlope: 0
        outSlope: 0
        tangentMode: 0
      - time: .383333445
        value: 0
        inSlope: 0
        outSlope: 0
        tangentMode: 0
      - time: .400000125
        value: 0
        inSlope: 0
        outSlope: 0
        tangentMode: 0
      - time: .416666806
        value: 0
        inSlope: 0
        outSlope: 0
        tangentMode: 0
      - time: .433333486
        value: 0
        inSlope: 0
        outSlope: 0
        tangentMode: 0
      - time: .450000167
        value: 0
        inSlope: 0
        outSlope: 0
        tangentMode: 0
      - time: .466666847
        value: 0
        inSlope: 0
        outSlope: 0
        tangentMode: 0
      - time: .483333528
        value: 0
        inSlope: 0
        outSlope: 0
        tangentMode: 0
      - time: .5
        value: 0
        inSlope: 0
        outSlope: 0
        tangentMode: 0
      m_PreInfinity: 2
      m_PostInfinity: 2
    attribute: m_LocalRotation.y
    path: Arrow
    classID: 4
    script: {fileID: 0}
  - curve:
      serializedVersion: 2
      m_Curve:
      - time: 0
        value: .707106829
        inSlope: 0
        outSlope: 0
        tangentMode: 0
      - time: .0166666675
        value: .707106829
        inSlope: 0
        outSlope: 0
        tangentMode: 0
      - time: .0333333351
        value: .707106829
        inSlope: 0
        outSlope: 0
        tangentMode: 0
      - time: .0500000045
        value: .707106829
        inSlope: 0
        outSlope: 0
        tangentMode: 0
      - time: .0666666701
        value: .707106829
        inSlope: 0
        outSlope: 0
        tangentMode: 0
      - time: .0833333358
        value: .707106829
        inSlope: 0
        outSlope: 0
        tangentMode: 0
      - time: .100000001
        value: .707106829
        inSlope: 0
        outSlope: 0
        tangentMode: 0
      - time: .116666667
        value: .707106829
        inSlope: 0
        outSlope: 0
        tangentMode: 0
      - time: .13333334
        value: .707106829
        inSlope: 0
        outSlope: 0
        tangentMode: 0
      - time: .150000006
        value: .707106829
        inSlope: 0
        outSlope: 0
        tangentMode: 0
      - time: .166666672
        value: .707106829
        inSlope: 0
        outSlope: 0
        tangentMode: 0
      - time: .183333337
        value: .707106829
        inSlope: 0
        outSlope: 0
        tangentMode: 0
      - time: .200000003
        value: .707106829
        inSlope: 0
        outSlope: 0
        tangentMode: 0
      - time: .216666669
        value: .707106829
        inSlope: 0
        outSlope: 0
        tangentMode: 0
      - time: .233333334
        value: .707106829
        inSlope: 0
        outSlope: 0
        tangentMode: 0
      - time: .25
        value: .707106829
        inSlope: 0
        outSlope: 0
        tangentMode: 0
      - time: .266666681
        value: .707106829
        inSlope: 0
        outSlope: 0
        tangentMode: 0
      - time: .283333361
        value: .707106829
        inSlope: 0
        outSlope: 0
        tangentMode: 0
      - time: .300000042
        value: .707106829
        inSlope: 0
        outSlope: 0
        tangentMode: 0
      - time: .316666722
        value: .707106829
        inSlope: 0
        outSlope: 0
        tangentMode: 0
      - time: .333333403
        value: .707106829
        inSlope: 0
        outSlope: 0
        tangentMode: 0
      - time: .350000083
        value: .707106829
        inSlope: 0
        outSlope: 0
        tangentMode: 0
      - time: .366666764
        value: .707106829
        inSlope: 0
        outSlope: 0
        tangentMode: 0
      - time: .383333445
        value: .707106829
        inSlope: 0
        outSlope: 0
        tangentMode: 0
      - time: .400000125
        value: .707106829
        inSlope: 0
        outSlope: 0
        tangentMode: 0
      - time: .416666806
        value: .707106829
        inSlope: 0
        outSlope: 0
        tangentMode: 0
      - time: .433333486
        value: .707106829
        inSlope: 0
        outSlope: 0
        tangentMode: 0
      - time: .450000167
        value: .707106829
        inSlope: 0
        outSlope: 0
        tangentMode: 0
      - time: .466666847
        value: .707106829
        inSlope: 0
        outSlope: 0
        tangentMode: 0
      - time: .483333528
        value: .707106829
        inSlope: 0
        outSlope: 0
        tangentMode: 0
      - time: .5
        value: .707106829
        inSlope: 0
        outSlope: 0
        tangentMode: 0
      m_PreInfinity: 2
      m_PostInfinity: 2
    attribute: m_LocalRotation.z
    path: Arrow
    classID: 4
    script: {fileID: 0}
  - curve:
      serializedVersion: 2
      m_Curve:
      - time: 0
        value: .707106709
        inSlope: 0
        outSlope: 0
        tangentMode: 0
      - time: .0166666675
        value: .707106709
        inSlope: 0
        outSlope: 0
        tangentMode: 0
      - time: .0333333351
        value: .707106709
        inSlope: 0
        outSlope: 0
        tangentMode: 0
      - time: .0500000045
        value: .707106709
        inSlope: 0
        outSlope: 0
        tangentMode: 0
      - time: .0666666701
        value: .707106709
        inSlope: 0
        outSlope: 0
        tangentMode: 0
      - time: .0833333358
        value: .707106709
        inSlope: 0
        outSlope: 0
        tangentMode: 0
      - time: .100000001
        value: .707106709
        inSlope: 0
        outSlope: 0
        tangentMode: 0
      - time: .116666667
        value: .707106709
        inSlope: 0
        outSlope: 0
        tangentMode: 0
      - time: .13333334
        value: .707106709
        inSlope: 0
        outSlope: 0
        tangentMode: 0
      - time: .150000006
        value: .707106709
        inSlope: 0
        outSlope: 0
        tangentMode: 0
      - time: .166666672
        value: .707106709
        inSlope: 0
        outSlope: 0
        tangentMode: 0
      - time: .183333337
        value: .707106709
        inSlope: 0
        outSlope: 0
        tangentMode: 0
      - time: .200000003
        value: .707106709
        inSlope: 0
        outSlope: 0
        tangentMode: 0
      - time: .216666669
        value: .707106709
        inSlope: 0
        outSlope: 0
        tangentMode: 0
      - time: .233333334
        value: .707106709
        inSlope: 0
        outSlope: 0
        tangentMode: 0
      - time: .25
        value: .707106709
        inSlope: 0
        outSlope: 0
        tangentMode: 0
      - time: .266666681
        value: .707106709
        inSlope: 0
        outSlope: 0
        tangentMode: 0
      - time: .283333361
        value: .707106709
        inSlope: 0
        outSlope: 0
        tangentMode: 0
      - time: .300000042
        value: .707106709
        inSlope: 0
        outSlope: 0
        tangentMode: 0
      - time: .316666722
        value: .707106709
        inSlope: 0
        outSlope: 0
        tangentMode: 0
      - time: .333333403
        value: .707106709
        inSlope: 0
        outSlope: 0
        tangentMode: 0
      - time: .350000083
        value: .707106709
        inSlope: 0
        outSlope: 0
        tangentMode: 0
      - time: .366666764
        value: .707106709
        inSlope: 0
        outSlope: 0
        tangentMode: 0
      - time: .383333445
        value: .707106709
        inSlope: 0
        outSlope: 0
        tangentMode: 0
      - time: .400000125
        value: .707106709
        inSlope: 0
        outSlope: 0
        tangentMode: 0
      - time: .416666806
        value: .707106709
        inSlope: 0
        outSlope: 0
        tangentMode: 0
      - time: .433333486
        value: .707106709
        inSlope: 0
        outSlope: 0
        tangentMode: 0
      - time: .450000167
        value: .707106709
        inSlope: 0
        outSlope: 0
        tangentMode: 0
      - time: .466666847
        value: .707106709
        inSlope: 0
        outSlope: 0
        tangentMode: 0
      - time: .483333528
        value: .707106709
        inSlope: 0
        outSlope: 0
        tangentMode: 0
      - time: .5
        value: .707106709
        inSlope: 0
        outSlope: 0
        tangentMode: 0
      m_PreInfinity: 2
      m_PostInfinity: 2
    attribute: m_LocalRotation.w
    path: Arrow
    classID: 4
    script: {fileID: 0}
  m_EulerEditorCurves:
  - curve:
      serializedVersion: 2
      m_Curve:
      - time: 0
        value: 0
        inSlope: 0
        outSlope: 0
        tangentMode: 10
      - time: .5
        value: 0
        inSlope: 0
        outSlope: 0
        tangentMode: 10
      m_PreInfinity: 2
      m_PostInfinity: 2
    attribute: localEulerAnglesBaked.x
    path: Arrow
    classID: 4
    script: {fileID: 0}
  - curve:
      serializedVersion: 2
      m_Curve:
      - time: 0
        value: 0
        inSlope: 0
        outSlope: 0
        tangentMode: 10
      - time: .5
        value: 0
        inSlope: 0
        outSlope: 0
        tangentMode: 10
      m_PreInfinity: 2
      m_PostInfinity: 2
    attribute: localEulerAnglesBaked.y
    path: Arrow
    classID: 4
    script: {fileID: 0}
  - curve:
      serializedVersion: 2
      m_Curve:
      - time: 0
        value: 90
        inSlope: 0
        outSlope: 0
        tangentMode: 10
      - time: .5
        value: 90
        inSlope: 0
        outSlope: 0
        tangentMode: 10
      m_PreInfinity: 2
      m_PostInfinity: 2
    attribute: localEulerAnglesBaked.z
    path: Arrow
    classID: 4
    script: {fileID: 0}
  m_Events: []
