info face="Aller Display" size=28 bold=0 italic=0 charset="" unicode=1 stretchH=100 smooth=1 aa=1 padding=0,0,0,0 spacing=1,1 outline=0
common lineHeight=28 base=22 scaleW=256 scaleH=150 pages=1 packed=0 alphaChnl=1 redChnl=0 greenChnl=0 blueChnl=0
page id=0 file="allerdisplay28-1-new_0.tga"
chars count=74
char id=32   x=35    y=21    width=3     height=1     xoffset=-1    yoffset=27    xadvance=5     page=0  chnl=15
char id=40   x=17    y=0     width=8     height=22    xoffset=0     yoffset=4     xadvance=8     page=0  chnl=15
char id=41   x=26    y=0     width=8     height=22    xoffset=0     yoffset=4     xadvance=8     page=0  chnl=15
char id=42   x=169   y=49    width=11    height=10    xoffset=0     yoffset=5     xadvance=11    page=0  chnl=15
char id=44   x=181   y=49    width=7     height=7     xoffset=0     yoffset=18    xadvance=7     page=0  chnl=15
char id=46   x=189   y=49    width=5     height=4     xoffset=1     yoffset=18    xadvance=7     page=0  chnl=15
char id=47   x=233   y=18    width=10    height=17    xoffset=0     yoffset=5     xadvance=10    page=0  chnl=15
char id=48   x=54    y=39    width=14    height=15    xoffset=0     yoffset=7     xadvance=14    page=0  chnl=15
char id=49   x=69    y=36    width=12    height=15    xoffset=0     yoffset=7     xadvance=12    page=0  chnl=15
char id=50   x=82    y=36    width=12    height=15    xoffset=0     yoffset=7     xadvance=12    page=0  chnl=15
char id=51   x=41    y=41    width=12    height=16    xoffset=0     yoffset=7     xadvance=12    page=0  chnl=15
char id=52   x=0     y=23    width=14    height=17    xoffset=0     yoffset=6     xadvance=14    page=0  chnl=15
char id=53   x=28    y=41    width=12    height=16    xoffset=0     yoffset=7     xadvance=12    page=0  chnl=15
char id=54   x=15    y=23    width=14    height=17    xoffset=0     yoffset=5     xadvance=14    page=0  chnl=15
char id=55   x=0     y=41    width=13    height=16    xoffset=0     yoffset=7     xadvance=13    page=0  chnl=15
char id=56   x=130   y=18    width=13    height=17    xoffset=0     yoffset=5     xadvance=13    page=0  chnl=15
char id=57   x=144   y=18    width=13    height=17    xoffset=0     yoffset=6     xadvance=14    page=0  chnl=15
char id=58   x=157   y=49    width=5     height=12    xoffset=1     yoffset=10    xadvance=7     page=0  chnl=15
char id=64   x=35    y=0     width=23    height=20    xoffset=0     yoffset=5     xadvance=23    page=0  chnl=15
char id=65   x=118   y=0     width=16    height=17    xoffset=-1    yoffset=5     xadvance=15    page=0  chnl=15
char id=66   x=74    y=18    width=13    height=17    xoffset=1     yoffset=5     xadvance=14    page=0  chnl=15
char id=67   x=30    y=23    width=14    height=17    xoffset=0     yoffset=5     xadvance=14    page=0  chnl=15
char id=68   x=201   y=0     width=15    height=17    xoffset=1     yoffset=5     xadvance=16    page=0  chnl=15
char id=69   x=197   y=18    width=11    height=17    xoffset=1     yoffset=5     xadvance=12    page=0  chnl=15
char id=70   x=209   y=18    width=11    height=17    xoffset=1     yoffset=5     xadvance=12    page=0  chnl=15
char id=71   x=185   y=0     width=15    height=17    xoffset=0     yoffset=5     xadvance=15    page=0  chnl=15
char id=72   x=88    y=18    width=13    height=17    xoffset=1     yoffset=5     xadvance=15    page=0  chnl=15
char id=73   x=247   y=0     width=5     height=17    xoffset=1     yoffset=5     xadvance=7     page=0  chnl=15
char id=74   x=244   y=18    width=9     height=17    xoffset=0     yoffset=5     xadvance=9     page=0  chnl=15
char id=75   x=232   y=0     width=14    height=17    xoffset=1     yoffset=5     xadvance=15    page=0  chnl=15
char id=76   x=185   y=18    width=11    height=17    xoffset=1     yoffset=5     xadvance=11    page=0  chnl=15
char id=77   x=81    y=0     width=18    height=17    xoffset=0     yoffset=5     xadvance=18    page=0  chnl=15
char id=78   x=217   y=0     width=14    height=17    xoffset=1     yoffset=5     xadvance=15    page=0  chnl=15
char id=79   x=135   y=0     width=16    height=17    xoffset=0     yoffset=5     xadvance=16    page=0  chnl=15
char id=80   x=172   y=18    width=12    height=17    xoffset=1     yoffset=5     xadvance=13    page=0  chnl=15
char id=81   x=0     y=0     width=16    height=22    xoffset=0     yoffset=5     xadvance=16    page=0  chnl=15
char id=82   x=116   y=18    width=13    height=17    xoffset=1     yoffset=5     xadvance=14    page=0  chnl=15
char id=83   x=102   y=18    width=13    height=17    xoffset=0     yoffset=5     xadvance=13    page=0  chnl=15
char id=84   x=60    y=18    width=13    height=17    xoffset=0     yoffset=5     xadvance=13    page=0  chnl=15
char id=85   x=45    y=21    width=14    height=17    xoffset=1     yoffset=5     xadvance=15    page=0  chnl=15
char id=86   x=100   y=0     width=17    height=17    xoffset=-1    yoffset=5     xadvance=15    page=0  chnl=15
char id=87   x=59    y=0     width=21    height=17    xoffset=0     yoffset=5     xadvance=21    page=0  chnl=15
char id=88   x=169   y=0     width=15    height=17    xoffset=0     yoffset=5     xadvance=15    page=0  chnl=15
char id=89   x=152   y=0     width=16    height=17    xoffset=-1    yoffset=5     xadvance=14    page=0  chnl=15
char id=90   x=158   y=18    width=13    height=17    xoffset=0     yoffset=5     xadvance=13    page=0  chnl=15
char id=92   x=221   y=18    width=11    height=17    xoffset=-1    yoffset=5     xadvance=10    page=0  chnl=15
char id=95   x=195   y=49    width=13    height=3     xoffset=-1    yoffset=22    xadvance=11    page=0  chnl=15
char id=97   x=204   y=36    width=12    height=12    xoffset=0     yoffset=10    xadvance=12    page=0  chnl=15
char id=98   x=217   y=36    width=12    height=12    xoffset=1     yoffset=10    xadvance=13    page=0  chnl=15
char id=99   x=78    y=52    width=11    height=12    xoffset=0     yoffset=10    xadvance=11    page=0  chnl=15
char id=100  x=230   y=36    width=12    height=12    xoffset=1     yoffset=10    xadvance=13    page=0  chnl=15
char id=101  x=134   y=36    width=13    height=12    xoffset=0     yoffset=10    xadvance=12    page=0  chnl=15
char id=102  x=126   y=49    width=10    height=12    xoffset=1     yoffset=10    xadvance=11    page=0  chnl=15
char id=103  x=243   y=36    width=12    height=12    xoffset=0     yoffset=10    xadvance=12    page=0  chnl=15
char id=104  x=0     y=58    width=12    height=12    xoffset=1     yoffset=10    xadvance=14    page=0  chnl=15
char id=105  x=163   y=49    width=5     height=12    xoffset=1     yoffset=10    xadvance=6     page=0  chnl=15
char id=106  x=137   y=49    width=9     height=12    xoffset=-1    yoffset=10    xadvance=9     page=0  chnl=15
char id=107  x=26    y=58    width=12    height=12    xoffset=1     yoffset=10    xadvance=13    page=0  chnl=15
char id=108  x=147   y=49    width=9     height=12    xoffset=1     yoffset=10    xadvance=10    page=0  chnl=15
char id=109  x=115   y=36    width=18    height=12    xoffset=1     yoffset=10    xadvance=19    page=0  chnl=15
char id=110  x=39    y=58    width=12    height=12    xoffset=1     yoffset=10    xadvance=13    page=0  chnl=15
char id=111  x=148   y=36    width=13    height=12    xoffset=0     yoffset=10    xadvance=13    page=0  chnl=15
char id=112  x=90    y=52    width=11    height=12    xoffset=1     yoffset=10    xadvance=12    page=0  chnl=15
char id=113  x=14    y=41    width=13    height=16    xoffset=0     yoffset=10    xadvance=13    page=0  chnl=15
char id=114  x=13    y=58    width=12    height=12    xoffset=1     yoffset=10    xadvance=13    page=0  chnl=15
char id=115  x=102   y=49    width=11    height=12    xoffset=0     yoffset=10    xadvance=11    page=0  chnl=15
char id=116  x=52    y=58    width=12    height=12    xoffset=0     yoffset=10    xadvance=12    page=0  chnl=15
char id=117  x=65    y=55    width=12    height=12    xoffset=0     yoffset=10    xadvance=13    page=0  chnl=15
char id=118  x=162   y=36    width=13    height=12    xoffset=0     yoffset=10    xadvance=13    page=0  chnl=15
char id=119  x=95    y=36    width=19    height=12    xoffset=0     yoffset=10    xadvance=18    page=0  chnl=15
char id=120  x=176   y=36    width=13    height=12    xoffset=0     yoffset=10    xadvance=12    page=0  chnl=15
char id=121  x=190   y=36    width=13    height=12    xoffset=0     yoffset=10    xadvance=13    page=0  chnl=15
char id=122  x=114   y=49    width=11    height=12    xoffset=0     yoffset=10    xadvance=11    page=0  chnl=15
char id=160  x=39    y=21    width=3     height=1     xoffset=-1    yoffset=27    xadvance=5     page=0  chnl=15
