info face="Earth's Mightiest" size=54 bold=0 italic=0 charset="" unicode=1 stretchH=100 smooth=1 aa=1 padding=0,0,0,0 spacing=1,1 outline=2
common lineHeight=54 base=44 scaleW=300 scaleH=256 pages=1 packed=0 alphaChnl=1 redChnl=0 greenChnl=0 blueChnl=0
page id=0 file="earth54-1-new_0.tga"
chars count=63
char id=32   x=108   y=147   width=7     height=5     xoffset=-3    yoffset=51    xadvance=13    page=0  chnl=15
char id=49   x=0     y=78    width=12    height=37    xoffset=-2    yoffset=9     xadvance=12    page=0  chnl=15
char id=50   x=277   y=0     width=20    height=38    xoffset=-2    yoffset=8     xadvance=19    page=0  chnl=15
char id=51   x=164   y=0     width=22    height=38    xoffset=-2    yoffset=8     xadvance=21    page=0  chnl=15
char id=52   x=48    y=40    width=21    height=37    xoffset=-2    yoffset=9     xadvance=20    page=0  chnl=15
char id=53   x=233   y=0     width=21    height=38    xoffset=-2    yoffset=8     xadvance=19    page=0  chnl=15
char id=54   x=37    y=78    width=22    height=36    xoffset=-2    yoffset=10    xadvance=21    page=0  chnl=15
char id=55   x=275   y=39    width=17    height=37    xoffset=-2    yoffset=9     xadvance=16    page=0  chnl=15
char id=56   x=0     y=40    width=24    height=37    xoffset=-2    yoffset=9     xadvance=23    page=0  chnl=15
char id=57   x=60    y=78    width=22    height=36    xoffset=-2    yoffset=10    xadvance=21    page=0  chnl=15
char id=65   x=86    y=0     width=29    height=38    xoffset=-3    yoffset=8     xadvance=26    page=0  chnl=15
char id=66   x=210   y=0     width=22    height=38    xoffset=-2    yoffset=8     xadvance=21    page=0  chnl=15
char id=67   x=136   y=39    width=20    height=37    xoffset=-2    yoffset=9     xadvance=19    page=0  chnl=15
char id=68   x=157   y=39    width=20    height=37    xoffset=-2    yoffset=9     xadvance=19    page=0  chnl=15
char id=69   x=219   y=39    width=18    height=37    xoffset=-2    yoffset=9     xadvance=17    page=0  chnl=15
char id=70   x=128   y=77    width=17    height=36    xoffset=-2    yoffset=9     xadvance=16    page=0  chnl=15
char id=71   x=70    y=39    width=21    height=37    xoffset=-2    yoffset=9     xadvance=20    page=0  chnl=15
char id=72   x=92    y=39    width=21    height=37    xoffset=-1    yoffset=9     xadvance=21    page=0  chnl=15
char id=73   x=170   y=77    width=12    height=35    xoffset=-1    yoffset=11    xadvance=11    page=0  chnl=15
char id=74   x=106   y=77    width=21    height=36    xoffset=-2    yoffset=10    xadvance=20    page=0  chnl=15
char id=75   x=146   y=77    width=23    height=35    xoffset=-2    yoffset=11    xadvance=20    page=0  chnl=15
char id=76   x=257   y=39    width=17    height=37    xoffset=-2    yoffset=9     xadvance=16    page=0  chnl=15
char id=77   x=0     y=0     width=30    height=39    xoffset=-2    yoffset=8     xadvance=29    page=0  chnl=15
char id=78   x=114   y=39    width=21    height=37    xoffset=-2    yoffset=9     xadvance=20    page=0  chnl=15
char id=79   x=25    y=40    width=22    height=37    xoffset=-2    yoffset=9     xadvance=21    page=0  chnl=15
char id=80   x=83    y=77    width=22    height=36    xoffset=-2    yoffset=10    xadvance=21    page=0  chnl=15
char id=81   x=187   y=0     width=22    height=38    xoffset=-2    yoffset=9     xadvance=21    page=0  chnl=15
char id=82   x=255   y=0     width=21    height=38    xoffset=-2    yoffset=8     xadvance=20    page=0  chnl=15
char id=83   x=178   y=39    width=20    height=37    xoffset=-2    yoffset=9     xadvance=19    page=0  chnl=15
char id=84   x=199   y=39    width=19    height=37    xoffset=-2    yoffset=9     xadvance=18    page=0  chnl=15
char id=85   x=13    y=78    width=23    height=36    xoffset=-1    yoffset=10    xadvance=23    page=0  chnl=15
char id=86   x=31    y=0     width=23    height=39    xoffset=-2    yoffset=8     xadvance=21    page=0  chnl=15
char id=87   x=55    y=0     width=30    height=38    xoffset=-2    yoffset=9     xadvance=29    page=0  chnl=15
char id=88   x=116   y=0     width=23    height=38    xoffset=-2    yoffset=9     xadvance=22    page=0  chnl=15
char id=89   x=140   y=0     width=23    height=38    xoffset=-2    yoffset=8     xadvance=21    page=0  chnl=15
char id=90   x=238   y=39    width=18    height=37    xoffset=-2    yoffset=9     xadvance=17    page=0  chnl=15
char id=97   x=100   y=114   width=25    height=32    xoffset=-3    yoffset=14    xadvance=22    page=0  chnl=15
char id=98   x=189   y=112   width=19    height=32    xoffset=-2    yoffset=14    xadvance=18    page=0  chnl=15
char id=99   x=266   y=111   width=18    height=32    xoffset=-2    yoffset=14    xadvance=16    page=0  chnl=15
char id=100  x=209   y=112   width=18    height=32    xoffset=-2    yoffset=14    xadvance=17    page=0  chnl=15
char id=101  x=0     y=150   width=16    height=32    xoffset=-2    yoffset=14    xadvance=15    page=0  chnl=15
char id=102  x=91    y=149   width=16    height=31    xoffset=-2    yoffset=14    xadvance=14    page=0  chnl=15
char id=103  x=228   y=112   width=18    height=32    xoffset=-2    yoffset=14    xadvance=17    page=0  chnl=15
char id=104  x=247   y=112   width=18    height=32    xoffset=-2    yoffset=14    xadvance=16    page=0  chnl=15
char id=105  x=285   y=110   width=9     height=30    xoffset=-1    yoffset=15    xadvance=9     page=0  chnl=15
char id=106  x=169   y=113   width=19    height=32    xoffset=-2    yoffset=14    xadvance=17    page=0  chnl=15
char id=107  x=50    y=149   width=20    height=31    xoffset=-2    yoffset=15    xadvance=18    page=0  chnl=15
char id=108  x=34    y=149   width=15    height=32    xoffset=-2    yoffset=14    xadvance=15    page=0  chnl=15
char id=109  x=183   y=77    width=26    height=34    xoffset=-2    yoffset=13    xadvance=24    page=0  chnl=15
char id=110  x=62    y=115   width=18    height=33    xoffset=-2    yoffset=13    xadvance=17    page=0  chnl=15
char id=111  x=148   y=113   width=20    height=32    xoffset=-2    yoffset=14    xadvance=18    page=0  chnl=15
char id=112  x=71    y=149   width=19    height=31    xoffset=-2    yoffset=15    xadvance=18    page=0  chnl=15
char id=113  x=0     y=116   width=20    height=33    xoffset=-2    yoffset=14    xadvance=18    page=0  chnl=15
char id=114  x=42    y=115   width=19    height=33    xoffset=-2    yoffset=13    xadvance=18    page=0  chnl=15
char id=115  x=81    y=115   width=18    height=33    xoffset=-2    yoffset=13    xadvance=17    page=0  chnl=15
char id=116  x=282   y=77    width=17    height=32    xoffset=-2    yoffset=14    xadvance=16    page=0  chnl=15
char id=117  x=126   y=114   width=21    height=32    xoffset=-2    yoffset=14    xadvance=20    page=0  chnl=15
char id=118  x=237   y=77    width=21    height=34    xoffset=-2    yoffset=13    xadvance=18    page=0  chnl=15
char id=119  x=210   y=77    width=26    height=34    xoffset=-2    yoffset=13    xadvance=25    page=0  chnl=15
char id=120  x=259   y=77    width=22    height=33    xoffset=-3    yoffset=14    xadvance=19    page=0  chnl=15
char id=121  x=21    y=115   width=20    height=33    xoffset=-2    yoffset=13    xadvance=18    page=0  chnl=15
char id=122  x=17    y=150   width=16    height=32    xoffset=-2    yoffset=14    xadvance=15    page=0  chnl=15
char id=160  x=116   y=147   width=7     height=5     xoffset=-3    yoffset=51    xadvance=13    page=0  chnl=15
kernings count=207
kerning first=122 second=111 amount=-3  
kerning first=122 second=101 amount=-2  
kerning first=121 second=111 amount=-3  
kerning first=121 second=101 amount=-2  
kerning first=121 second=97  amount=-5  
kerning first=120 second=101 amount=-2  
kerning first=119 second=111 amount=-3  
kerning first=119 second=104 amount=-2  
kerning first=119 second=101 amount=-2  
kerning first=51  second=52  amount=-2  
kerning first=54  second=55  amount=-2  
kerning first=55  second=56  amount=-3  
kerning first=55  second=65  amount=-5  
kerning first=55  second=97  amount=-6  
kerning first=56  second=57  amount=-3  
kerning first=119 second=97  amount=-3  
kerning first=118 second=111 amount=-3  
kerning first=65  second=67  amount=-3  
kerning first=65  second=71  amount=-3  
kerning first=65  second=79  amount=-3  
kerning first=65  second=81  amount=-3  
kerning first=65  second=84  amount=-4  
kerning first=65  second=85  amount=-4  
kerning first=65  second=86  amount=-5  
kerning first=65  second=87  amount=-2  
kerning first=65  second=89  amount=-5  
kerning first=65  second=97  amount=-1  
kerning first=65  second=99  amount=-3  
kerning first=65  second=100 amount=-2  
kerning first=65  second=101 amount=-1  
kerning first=65  second=111 amount=-3  
kerning first=65  second=112 amount=-1  
kerning first=65  second=113 amount=-3  
kerning first=65  second=115 amount=-2  
kerning first=65  second=116 amount=-4  
kerning first=65  second=117 amount=-3  
kerning first=65  second=118 amount=-4  
kerning first=65  second=119 amount=-2  
kerning first=65  second=121 amount=-4  
kerning first=118 second=101 amount=-2  
kerning first=118 second=97  amount=-5  
kerning first=66  second=65  amount=-3  
kerning first=118 second=65  amount=-4  
kerning first=116 second=106 amount=-4  
kerning first=67  second=65  amount=-2  
kerning first=115 second=119 amount=-2  
kerning first=114 second=121 amount=-4  
kerning first=68  second=65  amount=-4  
kerning first=68  second=86  amount=-4  
kerning first=68  second=87  amount=-2  
kerning first=68  second=89  amount=-5  
kerning first=114 second=118 amount=-3  
kerning first=114 second=117 amount=-3  
kerning first=70  second=65  amount=-6  
kerning first=70  second=97  amount=-6  
kerning first=70  second=101 amount=-3  
kerning first=70  second=105 amount=-4  
kerning first=70  second=111 amount=-3  
kerning first=70  second=114 amount=-3  
kerning first=114 second=116 amount=-2  
kerning first=114 second=115 amount=-2  
kerning first=114 second=114 amount=-2  
kerning first=114 second=113 amount=-2  
kerning first=74  second=65  amount=-5  
kerning first=74  second=97  amount=-5  
kerning first=74  second=101 amount=-2  
kerning first=74  second=111 amount=-2  
kerning first=74  second=117 amount=-3  
kerning first=75  second=67  amount=-2  
kerning first=75  second=79  amount=-3  
kerning first=75  second=101 amount=-1  
kerning first=75  second=111 amount=-2  
kerning first=75  second=117 amount=-3  
kerning first=75  second=121 amount=-3  
kerning first=114 second=112 amount=-2  
kerning first=114 second=111 amount=-3  
kerning first=78  second=65  amount=-3  
kerning first=114 second=110 amount=-2  
kerning first=114 second=109 amount=-2  
kerning first=79  second=65  amount=-5  
kerning first=79  second=84  amount=-3  
kerning first=79  second=86  amount=-4  
kerning first=79  second=87  amount=-2  
kerning first=79  second=88  amount=-3  
kerning first=79  second=89  amount=-5  
kerning first=114 second=108 amount=-2  
kerning first=114 second=107 amount=-2  
kerning first=80  second=65  amount=-7  
kerning first=80  second=97  amount=-7  
kerning first=80  second=101 amount=-2  
kerning first=80  second=111 amount=-3  
kerning first=114 second=105 amount=-3  
kerning first=114 second=103 amount=-3  
kerning first=81  second=85  amount=-2  
kerning first=82  second=79  amount=-3  
kerning first=82  second=84  amount=-2  
kerning first=82  second=85  amount=-3  
kerning first=82  second=86  amount=-3  
kerning first=82  second=87  amount=-2  
kerning first=82  second=121 amount=-2  
kerning first=114 second=101 amount=-2  
kerning first=114 second=100 amount=-2  
kerning first=83  second=72  amount=-1  
kerning first=114 second=99  amount=-2  
kerning first=114 second=97  amount=-3  
kerning first=112 second=121 amount=-4  
kerning first=111 second=121 amount=-3  
kerning first=111 second=120 amount=-3  
kerning first=84  second=65  amount=-5  
kerning first=84  second=74  amount=-6  
kerning first=84  second=79  amount=-4  
kerning first=84  second=97  amount=-5  
kerning first=84  second=101 amount=-3  
kerning first=84  second=104 amount=-2  
kerning first=84  second=105 amount=-2  
kerning first=84  second=106 amount=-5  
kerning first=84  second=110 amount=-2  
kerning first=84  second=111 amount=-4  
kerning first=84  second=114 amount=-2  
kerning first=84  second=117 amount=-3  
kerning first=84  second=119 amount=-2  
kerning first=84  second=121 amount=-3  
kerning first=111 second=119 amount=-1  
kerning first=111 second=118 amount=-2  
kerning first=85  second=65  amount=-5  
kerning first=111 second=103 amount=-1  
kerning first=110 second=121 amount=-2  
kerning first=110 second=118 amount=-2  
kerning first=110 second=117 amount=-2  
kerning first=109 second=121 amount=-2  
kerning first=86  second=65  amount=-7  
kerning first=86  second=71  amount=-4  
kerning first=86  second=79  amount=-4  
kerning first=86  second=97  amount=-7  
kerning first=86  second=101 amount=-3  
kerning first=86  second=105 amount=-4  
kerning first=86  second=111 amount=-5  
kerning first=86  second=117 amount=-3  
kerning first=109 second=117 amount=-2  
kerning first=108 second=121 amount=-6  
kerning first=108 second=119 amount=-3  
kerning first=108 second=116 amount=-4  
kerning first=108 second=55  amount=-2  
kerning first=87  second=65  amount=-3  
kerning first=87  second=79  amount=-3  
kerning first=87  second=97  amount=-3  
kerning first=87  second=101 amount=-2  
kerning first=87  second=104 amount=-2  
kerning first=87  second=105 amount=-3  
kerning first=87  second=111 amount=-3  
kerning first=87  second=117 amount=-3  
kerning first=87  second=121 amount=-3  
kerning first=107 second=121 amount=-3  
kerning first=107 second=111 amount=-3  
kerning first=107 second=101 amount=-1  
kerning first=105 second=118 amount=-2  
kerning first=104 second=121 amount=-2  
kerning first=89  second=65  amount=-6  
kerning first=89  second=79  amount=-4  
kerning first=89  second=83  amount=-3  
kerning first=89  second=97  amount=-6  
kerning first=89  second=101 amount=-3  
kerning first=89  second=105 amount=-4  
kerning first=89  second=111 amount=-4  
kerning first=89  second=117 amount=-3  
kerning first=97  second=86  amount=-3  
kerning first=103 second=121 amount=-2  
kerning first=97  second=103 amount=-2  
kerning first=97  second=111 amount=-2  
kerning first=97  second=112 amount=-1  
kerning first=97  second=116 amount=-4  
kerning first=97  second=118 amount=-4  
kerning first=97  second=119 amount=-2  
kerning first=97  second=121 amount=-4  
kerning first=103 second=114 amount=-2  
kerning first=103 second=111 amount=-2  
kerning first=98  second=98  amount=-2  
kerning first=98  second=108 amount=-2  
kerning first=98  second=117 amount=-2  
kerning first=98  second=118 amount=-3  
kerning first=98  second=121 amount=-4  
kerning first=103 second=105 amount=-3  
kerning first=103 second=103 amount=-2  
kerning first=99  second=104 amount=-2  
kerning first=99  second=107 amount=-2  
kerning first=99  second=108 amount=-2  
kerning first=99  second=121 amount=-2  
kerning first=100 second=100 amount=-2  
kerning first=100 second=118 amount=-3  
kerning first=100 second=119 amount=-2  
kerning first=100 second=121 amount=-4  
kerning first=103 second=101 amount=-1  
kerning first=103 second=97  amount=-2  
kerning first=101 second=98  amount=-2  
kerning first=101 second=103 amount=-3  
kerning first=101 second=112 amount=-2  
kerning first=101 second=118 amount=-2  
kerning first=101 second=119 amount=-2  
kerning first=101 second=120 amount=-2  
kerning first=101 second=121 amount=-2  
kerning first=102 second=111 amount=-3  
kerning first=102 second=108 amount=-2  
kerning first=102 second=105 amount=-3  
kerning first=102 second=102 amount=-2  
kerning first=102 second=49  amount=-2  
kerning first=102 second=97  amount=-5  
kerning first=102 second=101 amount=-2  
