info face="Earth's Mightiest" size=66 bold=0 italic=0 charset="" unicode=1 stretchH=100 smooth=1 aa=1 padding=0,0,0,0 spacing=1,1 outline=1
common lineHeight=66 base=54 scaleW=300 scaleH=300 pages=1 packed=0 alphaChnl=1 redChnl=0 greenChnl=0 blueChnl=0
page id=0 file="earth66-1-new_0.tga"
chars count=65
char id=32   x=293   y=87    width=5     height=3     xoffset=-2    yoffset=64    xadvance=16    page=0  chnl=15
char id=48   x=118   y=45    width=23    height=42    xoffset=-1    yoffset=13    xadvance=25    page=0  chnl=15
char id=49   x=79    y=89    width=12    height=42    xoffset=-1    yoffset=13    xadvance=15    page=0  chnl=15
char id=50   x=96    y=45    width=21    height=43    xoffset=-1    yoffset=12    xadvance=23    page=0  chnl=15
char id=51   x=25    y=46    width=23    height=43    xoffset=-1    yoffset=12    xadvance=25    page=0  chnl=15
char id=52   x=166   y=45    width=22    height=42    xoffset=-1    yoffset=13    xadvance=24    page=0  chnl=15
char id=53   x=145   y=0     width=22    height=44    xoffset=-1    yoffset=12    xadvance=23    page=0  chnl=15
char id=54   x=118   y=88    width=23    height=41    xoffset=-1    yoffset=14    xadvance=25    page=0  chnl=15
char id=55   x=61    y=89    width=17    height=42    xoffset=-1    yoffset=13    xadvance=19    page=0  chnl=15
char id=56   x=246   y=0     width=27    height=43    xoffset=-1    yoffset=12    xadvance=28    page=0  chnl=15
char id=57   x=142   y=88    width=23    height=41    xoffset=-1    yoffset=14    xadvance=25    page=0  chnl=15
char id=64   x=191   y=0     width=22    height=44    xoffset=-1    yoffset=12    xadvance=24    page=0  chnl=15
char id=65   x=214   y=0     width=31    height=43    xoffset=-1    yoffset=12    xadvance=31    page=0  chnl=15
char id=66   x=49    y=45    width=23    height=43    xoffset=-1    yoffset=12    xadvance=25    page=0  chnl=15
char id=67   x=235   y=44    width=21    height=42    xoffset=-1    yoffset=13    xadvance=23    page=0  chnl=15
char id=68   x=257   y=44    width=21    height=42    xoffset=0     yoffset=13    xadvance=24    page=0  chnl=15
char id=69   x=279   y=44    width=19    height=42    xoffset=-1    yoffset=13    xadvance=21    page=0  chnl=15
char id=70   x=213   y=88    width=18    height=41    xoffset=-1    yoffset=13    xadvance=20    page=0  chnl=15
char id=71   x=189   y=45    width=22    height=42    xoffset=-1    yoffset=13    xadvance=24    page=0  chnl=15
char id=72   x=212   y=45    width=22    height=42    xoffset=0     yoffset=13    xadvance=25    page=0  chnl=15
char id=73   x=258   y=87    width=11    height=40    xoffset=1     yoffset=15    xadvance=14    page=0  chnl=15
char id=74   x=190   y=88    width=22    height=41    xoffset=-1    yoffset=14    xadvance=24    page=0  chnl=15
char id=75   x=232   y=88    width=25    height=40    xoffset=-1    yoffset=15    xadvance=25    page=0  chnl=15
char id=76   x=42    y=90    width=18    height=42    xoffset=-1    yoffset=13    xadvance=20    page=0  chnl=15
char id=77   x=60    y=0     width=33    height=44    xoffset=-1    yoffset=12    xadvance=35    page=0  chnl=15
char id=78   x=73    y=45    width=22    height=43    xoffset=-1    yoffset=12    xadvance=24    page=0  chnl=15
char id=79   x=142   y=45    width=23    height=42    xoffset=-1    yoffset=13    xadvance=25    page=0  chnl=15
char id=80   x=166   y=88    width=23    height=41    xoffset=-1    yoffset=14    xadvance=25    page=0  chnl=15
char id=81   x=120   y=0     width=24    height=44    xoffset=-1    yoffset=13    xadvance=25    page=0  chnl=15
char id=82   x=0     y=46    width=24    height=43    xoffset=-1    yoffset=12    xadvance=25    page=0  chnl=15
char id=83   x=168   y=0     width=22    height=44    xoffset=-1    yoffset=12    xadvance=24    page=0  chnl=15
char id=84   x=0     y=90    width=21    height=42    xoffset=-1    yoffset=13    xadvance=22    page=0  chnl=15
char id=85   x=92    y=89    width=25    height=41    xoffset=0     yoffset=14    xadvance=28    page=0  chnl=15
char id=86   x=0     y=0     width=25    height=45    xoffset=-1    yoffset=11    xadvance=26    page=0  chnl=15
char id=87   x=26    y=0     width=33    height=44    xoffset=-1    yoffset=12    xadvance=35    page=0  chnl=15
char id=88   x=274   y=0     width=25    height=43    xoffset=-1    yoffset=13    xadvance=27    page=0  chnl=15
char id=89   x=94    y=0     width=25    height=44    xoffset=-1    yoffset=11    xadvance=26    page=0  chnl=15
char id=90   x=22    y=90    width=19    height=42    xoffset=-1    yoffset=13    xadvance=20    page=0  chnl=15
char id=97   x=211   y=130   width=26    height=36    xoffset=-1    yoffset=19    xadvance=27    page=0  chnl=15
char id=98   x=148   y=130   width=20    height=37    xoffset=-1    yoffset=18    xadvance=22    page=0  chnl=15
char id=99   x=259   y=128   width=19    height=36    xoffset=-1    yoffset=19    xadvance=20    page=0  chnl=15
char id=100  x=279   y=127   width=19    height=36    xoffset=-1    yoffset=19    xadvance=20    page=0  chnl=15
char id=101  x=197   y=168   width=16    height=35    xoffset=-1    yoffset=20    xadvance=18    page=0  chnl=15
char id=102  x=180   y=168   width=16    height=35    xoffset=-1    yoffset=19    xadvance=17    page=0  chnl=15
char id=103  x=0     y=172   width=19    height=36    xoffset=-1    yoffset=19    xadvance=21    page=0  chnl=15
char id=104  x=20    y=172   width=19    height=36    xoffset=-1    yoffset=19    xadvance=20    page=0  chnl=15
char id=105  x=214   y=167   width=9     height=33    xoffset=0     yoffset=21    xadvance=11    page=0  chnl=15
char id=106  x=138   y=168   width=20    height=35    xoffset=-1    yoffset=20    xadvance=21    page=0  chnl=15
char id=107  x=116   y=169   width=21    height=35    xoffset=-1    yoffset=20    xadvance=22    page=0  chnl=15
char id=108  x=59    y=172   width=16    height=36    xoffset=-1    yoffset=19    xadvance=18    page=0  chnl=15
char id=109  x=0     y=133   width=29    height=38    xoffset=-1    yoffset=18    xadvance=30    page=0  chnl=15
char id=110  x=127   y=130   width=20    height=37    xoffset=-1    yoffset=18    xadvance=21    page=0  chnl=15
char id=111  x=238   y=129   width=20    height=36    xoffset=-1    yoffset=19    xadvance=21    page=0  chnl=15
char id=112  x=159   y=168   width=20    height=35    xoffset=-1    yoffset=20    xadvance=22    page=0  chnl=15
char id=113  x=82    y=132   width=21    height=38    xoffset=-1    yoffset=19    xadvance=22    page=0  chnl=15
char id=114  x=190   y=130   width=20    height=37    xoffset=-1    yoffset=18    xadvance=22    page=0  chnl=15
char id=115  x=169   y=130   width=20    height=37    xoffset=-1    yoffset=18    xadvance=21    page=0  chnl=15
char id=116  x=40    y=172   width=18    height=36    xoffset=-1    yoffset=19    xadvance=19    page=0  chnl=15
char id=117  x=93    y=171   width=22    height=35    xoffset=0     yoffset=20    xadvance=25    page=0  chnl=15
char id=118  x=270   y=87    width=22    height=39    xoffset=-1    yoffset=17    xadvance=22    page=0  chnl=15
char id=119  x=30    y=133   width=28    height=38    xoffset=-1    yoffset=18    xadvance=30    page=0  chnl=15
char id=120  x=104   y=131   width=22    height=37    xoffset=-1    yoffset=19    xadvance=23    page=0  chnl=15
char id=121  x=59    y=133   width=22    height=38    xoffset=-1    yoffset=17    xadvance=22    page=0  chnl=15
char id=122  x=76    y=172   width=16    height=36    xoffset=-1    yoffset=19    xadvance=18    page=0  chnl=15
char id=160  x=293   y=91    width=5     height=3     xoffset=-2    yoffset=64    xadvance=16    page=0  chnl=15
kernings count=208
kerning first=122 second=111 amount=-4  
kerning first=122 second=101 amount=-3  
kerning first=121 second=117 amount=-1  
kerning first=121 second=111 amount=-4  
kerning first=121 second=101 amount=-2  
kerning first=121 second=97  amount=-6  
kerning first=120 second=101 amount=-2  
kerning first=119 second=111 amount=-3  
kerning first=119 second=104 amount=-3  
kerning first=51  second=52  amount=-2  
kerning first=54  second=55  amount=-3  
kerning first=55  second=56  amount=-3  
kerning first=55  second=65  amount=-6  
kerning first=55  second=97  amount=-8  
kerning first=56  second=57  amount=-3  
kerning first=119 second=101 amount=-2  
kerning first=119 second=97  amount=-3  
kerning first=65  second=67  amount=-4  
kerning first=65  second=71  amount=-3  
kerning first=65  second=79  amount=-4  
kerning first=65  second=81  amount=-4  
kerning first=65  second=84  amount=-5  
kerning first=65  second=85  amount=-4  
kerning first=65  second=86  amount=-6  
kerning first=65  second=87  amount=-3  
kerning first=65  second=89  amount=-6  
kerning first=65  second=97  amount=-1  
kerning first=65  second=99  amount=-3  
kerning first=65  second=100 amount=-2  
kerning first=65  second=101 amount=-1  
kerning first=65  second=111 amount=-3  
kerning first=65  second=112 amount=-2  
kerning first=65  second=113 amount=-4  
kerning first=65  second=115 amount=-2  
kerning first=65  second=116 amount=-4  
kerning first=65  second=117 amount=-4  
kerning first=65  second=118 amount=-5  
kerning first=65  second=119 amount=-3  
kerning first=65  second=121 amount=-5  
kerning first=118 second=111 amount=-4  
kerning first=118 second=101 amount=-2  
kerning first=66  second=65  amount=-4  
kerning first=118 second=97  amount=-7  
kerning first=118 second=65  amount=-5  
kerning first=67  second=65  amount=-3  
kerning first=116 second=106 amount=-5  
kerning first=115 second=119 amount=-3  
kerning first=68  second=65  amount=-5  
kerning first=68  second=86  amount=-5  
kerning first=68  second=87  amount=-3  
kerning first=68  second=89  amount=-6  
kerning first=114 second=121 amount=-4  
kerning first=114 second=118 amount=-3  
kerning first=70  second=65  amount=-7  
kerning first=70  second=97  amount=-8  
kerning first=70  second=101 amount=-4  
kerning first=70  second=105 amount=-5  
kerning first=70  second=111 amount=-4  
kerning first=70  second=114 amount=-4  
kerning first=114 second=117 amount=-3  
kerning first=114 second=116 amount=-3  
kerning first=114 second=115 amount=-2  
kerning first=114 second=114 amount=-3  
kerning first=74  second=65  amount=-6  
kerning first=74  second=97  amount=-6  
kerning first=74  second=101 amount=-2  
kerning first=74  second=111 amount=-3  
kerning first=74  second=117 amount=-3  
kerning first=75  second=67  amount=-3  
kerning first=75  second=79  amount=-3  
kerning first=75  second=101 amount=-1  
kerning first=75  second=111 amount=-3  
kerning first=75  second=117 amount=-4  
kerning first=75  second=121 amount=-4  
kerning first=114 second=113 amount=-3  
kerning first=114 second=112 amount=-3  
kerning first=78  second=65  amount=-3  
kerning first=114 second=111 amount=-3  
kerning first=114 second=110 amount=-3  
kerning first=79  second=65  amount=-6  
kerning first=79  second=84  amount=-4  
kerning first=79  second=86  amount=-4  
kerning first=79  second=87  amount=-3  
kerning first=79  second=88  amount=-4  
kerning first=79  second=89  amount=-6  
kerning first=114 second=109 amount=-3  
kerning first=114 second=108 amount=-3  
kerning first=80  second=65  amount=-8  
kerning first=80  second=97  amount=-8  
kerning first=80  second=101 amount=-2  
kerning first=80  second=111 amount=-4  
kerning first=114 second=107 amount=-3  
kerning first=114 second=105 amount=-4  
kerning first=81  second=85  amount=-3  
kerning first=82  second=79  amount=-3  
kerning first=82  second=84  amount=-3  
kerning first=82  second=85  amount=-3  
kerning first=82  second=86  amount=-3  
kerning first=82  second=87  amount=-2  
kerning first=82  second=121 amount=-3  
kerning first=114 second=103 amount=-3  
kerning first=114 second=101 amount=-2  
kerning first=83  second=72  amount=-1  
kerning first=114 second=100 amount=-3  
kerning first=114 second=99  amount=-3  
kerning first=114 second=97  amount=-3  
kerning first=112 second=121 amount=-4  
kerning first=111 second=121 amount=-4  
kerning first=84  second=65  amount=-6  
kerning first=84  second=74  amount=-7  
kerning first=84  second=79  amount=-4  
kerning first=84  second=97  amount=-6  
kerning first=84  second=101 amount=-3  
kerning first=84  second=104 amount=-2  
kerning first=84  second=105 amount=-2  
kerning first=84  second=106 amount=-6  
kerning first=84  second=110 amount=-2  
kerning first=84  second=111 amount=-5  
kerning first=84  second=114 amount=-3  
kerning first=84  second=117 amount=-4  
kerning first=84  second=119 amount=-2  
kerning first=84  second=121 amount=-3  
kerning first=111 second=120 amount=-3  
kerning first=111 second=119 amount=-2  
kerning first=85  second=65  amount=-6  
kerning first=111 second=118 amount=-3  
kerning first=111 second=103 amount=-2  
kerning first=110 second=121 amount=-2  
kerning first=110 second=118 amount=-2  
kerning first=110 second=117 amount=-3  
kerning first=86  second=65  amount=-8  
kerning first=86  second=71  amount=-5  
kerning first=86  second=79  amount=-5  
kerning first=86  second=97  amount=-8  
kerning first=86  second=101 amount=-3  
kerning first=86  second=105 amount=-4  
kerning first=86  second=111 amount=-6  
kerning first=86  second=117 amount=-4  
kerning first=109 second=121 amount=-3  
kerning first=109 second=117 amount=-3  
kerning first=108 second=121 amount=-8  
kerning first=108 second=119 amount=-4  
kerning first=108 second=116 amount=-5  
kerning first=87  second=65  amount=-4  
kerning first=87  second=79  amount=-4  
kerning first=87  second=97  amount=-4  
kerning first=87  second=101 amount=-3  
kerning first=87  second=104 amount=-3  
kerning first=87  second=105 amount=-4  
kerning first=87  second=111 amount=-4  
kerning first=87  second=117 amount=-4  
kerning first=87  second=121 amount=-3  
kerning first=108 second=55  amount=-2  
kerning first=107 second=121 amount=-4  
kerning first=107 second=111 amount=-3  
kerning first=107 second=101 amount=-2  
kerning first=105 second=118 amount=-2  
kerning first=89  second=65  amount=-7  
kerning first=89  second=79  amount=-5  
kerning first=89  second=83  amount=-4  
kerning first=89  second=97  amount=-7  
kerning first=89  second=101 amount=-4  
kerning first=89  second=105 amount=-4  
kerning first=89  second=111 amount=-5  
kerning first=89  second=117 amount=-4  
kerning first=97  second=86  amount=-4  
kerning first=104 second=121 amount=-2  
kerning first=97  second=103 amount=-3  
kerning first=97  second=111 amount=-3  
kerning first=97  second=112 amount=-2  
kerning first=97  second=116 amount=-4  
kerning first=97  second=118 amount=-5  
kerning first=97  second=119 amount=-3  
kerning first=97  second=121 amount=-5  
kerning first=103 second=121 amount=-3  
kerning first=103 second=114 amount=-2  
kerning first=98  second=98  amount=-3  
kerning first=98  second=108 amount=-2  
kerning first=98  second=117 amount=-3  
kerning first=98  second=118 amount=-4  
kerning first=98  second=121 amount=-5  
kerning first=103 second=111 amount=-2  
kerning first=103 second=105 amount=-3  
kerning first=99  second=104 amount=-2  
kerning first=99  second=107 amount=-2  
kerning first=99  second=108 amount=-2  
kerning first=99  second=121 amount=-3  
kerning first=100 second=100 amount=-3  
kerning first=100 second=118 amount=-4  
kerning first=100 second=119 amount=-2  
kerning first=100 second=121 amount=-5  
kerning first=103 second=103 amount=-2  
kerning first=103 second=101 amount=-2  
kerning first=101 second=98  amount=-3  
kerning first=101 second=103 amount=-3  
kerning first=101 second=112 amount=-3  
kerning first=101 second=118 amount=-3  
kerning first=101 second=119 amount=-2  
kerning first=101 second=120 amount=-3  
kerning first=101 second=121 amount=-3  
kerning first=103 second=97  amount=-3  
kerning first=102 second=111 amount=-4  
kerning first=102 second=108 amount=-2  
kerning first=102 second=105 amount=-3  
kerning first=102 second=49  amount=-2  
kerning first=102 second=97  amount=-6  
kerning first=102 second=101 amount=-2  
kerning first=102 second=102 amount=-2  
