%YAML 1.1
%TAG !u! tag:unity3d.com,2011:
--- !u!74 &7400000
AnimationClip:
  m_ObjectHideFlags: 0
  m_PrefabParentObject: {fileID: 0}
  m_PrefabInternal: {fileID: 0}
  m_Name: man_animation
  serializedVersion: 4
  m_AnimationType: 2
  m_Compressed: 0
  m_UseHighQualityCurve: 1
  m_RotationCurves: []
  m_CompressedRotationCurves: []
  m_PositionCurves: []
  m_ScaleCurves: []
  m_FloatCurves: []
  m_PPtrCurves:
  - curve:
    - time: 0
      value: {fileID: 21300000, guid: 3bc50bbdf87124ee3abb47897682a91d, type: 3}
    - time: .0833333358
      value: {fileID: 21300000, guid: d4b687fbae09d4dbd81919fa74bb853c, type: 3}
    - time: .166666672
      value: {fileID: 21300000, guid: 7aa16d7d38a8a4148878145f9407ff2e, type: 3}
    - time: .25
      value: {fileID: 21300000, guid: bfbc546dbbb704ff78190ce72957c8b5, type: 3}
    - time: .333333343
      value: {fileID: 21300000, guid: 4c86423a7491e4ac3aaa25471aa4eb29, type: 3}
    - time: .416666657
      value: {fileID: 21300000, guid: 8b1768dde19b54111995462ef8503c42, type: 3}
    - time: .5
      value: {fileID: 21300000, guid: d0067cb774f7b4af7b99bbc755610cc7, type: 3}
    attribute: m_Sprite
    path: 
    classID: 212
    script: {fileID: 0}
  m_SampleRate: 12
  m_WrapMode: 0
  m_Bounds:
    m_Center: {x: 0, y: 0, z: 0}
    m_Extent: {x: 0, y: 0, z: 0}
  m_AnimationClipSettings:
    serializedVersion: 2
    m_StartTime: 0
    m_StopTime: .583333313
    m_OrientationOffsetY: 0
    m_Level: 0
    m_CycleOffset: 0
    m_LoopTime: 1
    m_LoopBlend: 0
    m_LoopBlendOrientation: 0
    m_LoopBlendPositionY: 0
    m_LoopBlendPositionXZ: 0
    m_KeepOriginalOrientation: 0
    m_KeepOriginalPositionY: 1
    m_KeepOriginalPositionXZ: 0
    m_HeightFromFeet: 0
    m_Mirror: 0
  m_EditorCurves: []
  m_EulerEditorCurves: []
  m_Events: []
