%YAML 1.1
%TAG !u! tag:unity3d.com,2011:
--- !u!78 &1
TagManager:
  tags:
  - 
  - Store
  - CornerBtn
  - CameraPosUnderBridge
  - 
  - Wall
  - Tutorial
  - Rope
  - PitInZipLining
  - MudSplashTrickling
  - MudSplashCamera
  - MudSplashParent
  - 
  Builtin Layer 0: Default
  Builtin Layer 1: TransparentFX
  Builtin Layer 2: Ignore Raycast
  Builtin Layer 3: 
  Builtin Layer 4: Water
  Builtin Layer 5: 
  Builtin Layer 6: 
  Builtin Layer 7: 
  User Layer 8: Player
  User Layer 9: Platform
  User Layer 10: Wall
  User Layer 11: UI
  User Layer 12: Obstacle
  User Layer 13: CoinMagnet
  User Layer 14: MovingObstacle
  User Layer 15: PlatformJump
  User Layer 16: Floor
  User Layer 17: GUICoin
  User Layer 18: Pit
  User Layer 19: UIThree
  User Layer 20: camera2d
  User Layer 21: IntroVideo
  User Layer 22: 1
  User Layer 23: 2
  User Layer 24: 3
  User Layer 25: TurnTrigger
  User Layer 26: BackGroundImage
  User Layer 27: MudSplashLayer
  User Layer 28: 
  User Layer 29: 
  User Layer 30: 
  User Layer 31: 
  m_SortingLayers:
  - name: Default
    userID: 0
    uniqueID: 0
    locked: 0
