%YAML 1.1
%TAG !u! tag:unity3d.com,2011:
--- !u!21 &2100000
Material:
  serializedVersion: 3
  m_ObjectHideFlags: 0
  m_PrefabParentObject: {fileID: 0}
  m_PrefabInternal: {fileID: 0}
  m_Name: Star
  m_Shader: {fileID: 10720, guid: 0000000000000000f000000000000000, type: 0}
  m_ShaderKeywords: []
  m_CustomRenderQueue: -1
  m_SavedProperties:
    serializedVersion: 2
    m_TexEnvs:
      data:
        first:
          name: _MainTex
        second:
          m_Texture: {fileID: 2800000, guid: bf1bf3fdd75d44e5da335a27b2ab6a25, type: 3}
          m_Scale: {x: 1, y: 1}
          m_Offset: {x: 0, y: 0}
    m_Floats:
      data:
        first:
          name: _Scroll
        second: 4
      data:
        first:
          name: _ScrollOffset
        second: 1
    m_Colors:
      data:
        first:
          name: _Color
        second: {r: 1, g: .627451003, b: 0, a: 1}
      data:
        first:
          name: _VertexColor1
        second: {r: 1, g: .90196079, b: 0, a: .388235301}
      data:
        first:
          name: _VertexColor2
        second: {r: .513725519, g: .355656147, b: 0, a: .470588237}
